^C:\USERS\SEREN\ONEDRIVE\DESKTOP\C++\C19\C19\DEBUG\C19.OBJ
C:\USERS\SEREN\ONEDRIVE\DESKTOP\C++\C19\DEBUG\C19.EXE
C:\USERS\SEREN\ONEDRIVE\DESKTOP\C++\C19\DEBUG\C19.ILK
C:\USERS\SEREN\ONEDRIVE\DESKTOP\C++\C19\DEBUG\C19.PDB
